{
    "type": "application",
    "source-directories": [
        "src",
        ".elm-pages"
    ],
    "elm-version": "0.19.1",
    "dependencies": {
        "direct": {
            "avh4/elm-color": "1.0.0",
            "danyx23/elm-mimetype": "4.0.1",
            "dillonkearns/elm-bcp47-language-tag": "1.0.1",
            "dillonkearns/elm-pages": "8.0.2",
            "elm/browser": "1.0.2",
            "elm/core": "1.0.5",
            "elm/html": "1.0.0",
            "elm/json": "1.1.3",
            "elm/svg": "1.0.1",
            "elm/time": "1.0.0",
            "elm/url": "1.0.0",
            "justinmimbs/date": "4.0.1",
            "pablohirafuji/elm-markdown": "2.0.5",
            "terezka/yaml": "1.0.1"
        },
        "indirect": {
            "MartinSStewart/elm-serialize": "1.3.0",
            "bburdette/toop": "1.2.0",
            "danfishgold/base64-bytes": "1.1.0",
            "elm/bytes": "1.0.8",
            "elm/file": "1.0.5",
            "elm/http": "2.0.0",
            "elm/parser": "1.1.0",
            "elm/random": "1.0.0",
            "elm/regex": "1.0.0",
            "elm/virtual-dom": "1.0.3",
            "elm-community/dict-extra": "2.4.0",
            "elm-community/list-extra": "8.7.0",
            "fredcy/elm-parseint": "2.0.1",
            "mgold/elm-nonempty-list": "4.2.0",
            "miniBill/elm-codec": "2.0.0",
            "noahzgordon/elm-color-extra": "1.0.2",
            "robinheghan/murmur3": "1.0.0",
            "tripokey/elm-fuzzy": "5.2.1",
            "vito/elm-ansi": "10.0.1",
            "zwilias/json-decode-exploration": "6.0.0"
        }
    },
    "test-dependencies": {
        "direct": {},
        "indirect": {}
    }
}
